//1works
using System;
public class HelloWorlddddd{
	public static void Main(){
		const int n=10;
		int[] arr = new int[]{1,5,3,5,5,0,2,4,0,0}/*{0,0,0,0,0,1,1,0,0,0}*//*{3,4,5,5,4,3,4,5,5,4}*/;
		int[] arr2 = new int[n];
		for(int i=0;i<n;i++)
			Console.WriteLine("{0}: {1}",i,arr[i]);
		int max=arr[0];
		int n2=1;
		for(int i=0;i<n;i++)
			if(max<arr[i]){
				max=arr[i];
				arr2[0]=i;
				for(int l=1;l<n2;l++)
					arr2[l]=0;
				n2=1;
			}
			else if(max==arr[i]){
				arr2[n2]=i;
				n2++;
			}
		for(int i=0;i<n2;i++)
			Console.WriteLine("{0}: {1}",i,arr2[i]);
	}
}
//2works
using System;
public class alsdkj{
	public static void Main(){
		const int n = 0;
		int[] arr = new int[]{0,2,4,4,4,2,0,2,4,4}/*{1,2,3,4,5,1,2,3,4,5,}*//*{5,6,5,6,5,6,5,6,5,6}*/;
		for(int i=0;i<n;i++)
			Console.WriteLine("{0}: {1}",i,arr[i]);
		int max=arr[0];
		for(int i = 0;i<n;i++)
			if(max<arr[i])
				max=arr[i];
		for(int i =0;i<n;i++)
			if(max==arr[i])
				arr[i]=i;
		for(int i=0;i<n;i++)
			Console.WriteLine(arr[i]);
	}
}
//3works
using System;
public class ade{
	public static void Main(){
		const int n = 10;
		int[] arr = new int[]{0,2,4,4,4,2,0,7,4,4}/*{1,2,3,4,5,1,2,3,4,5,}*//*{5,6,5,6,5,6,5,6,5,6}*/;
		for(int i=0;i<n;i++)
			Console.WriteLine("{0}: {1}",i,arr[i]);
		int max=arr[0];
		int imax=0;
		for(int i = 0;i<n;i++)
			if(max<arr[i]){
				imax=i;
				max=arr[i];
			}
		for(int i = 0;i<max-max%2;i+=2){
			int t=arr[i];
			arr[i]=arr[i+1];
			arr[i+1]=t;
		}
		for(int i=0;i<n;i++)
			Console.WriteLine(arr[i]);
	}
}
//4works
using System;
public class HelloWorlddddd{
	public static void Main(){
		const int n = 10;
		int[] arr=new int[]{2,4,6,6,2,0,6,2,-3,6}/*{1,2,3,4,5,5,4,3,3,2}{1,2,3,4,4,4,4,4,4,4}*/;
		for(int i=0;i<n;i++)
			Console.WriteLine("{0}: {1}",i,arr[i]);
		int max=arr[0];
		for(int i = 0;i<n;i++)
			if(max<arr[i])
				max=arr[i];
		int s =0;
		for(int i =0;i<n;i++){
			if(arr[i]==max){
				arr[i]=s;
				s+=max;
			}
			else
				s+=arr[i];
		}
		for(int i=0;i<n;i++)
			Console.WriteLine(arr[i]);

	}
}
//5notworks
using System;
public class asdlk{
	public static void Main(){
		const int n =13;
		int[] arr=new int[n]{0,4,5,4,3,2,99,4,-5,10,-122,-2,-3};
		for(int i=0;i<n;i++)
			Console.WriteLine("{0}: {1}",i,arr[i]);
		bool flag;
		for(int i=0;i<n-n%2;i+=2){
			flag=false;
			for(int l=0;l<n-n%2-i-1;l+=2)
				if(arr[l]>arr[l+2]){
					int t=arr[l];
					arr[l]=arr[l+2];
					arr[l+2]=t;
					flag=true;
				}
			if(flag==false)
				break;
		}
		for(int i=0;i<n;i++)
			Console.Write("{0} ",arr[i]);

	}
}
//6works
using System;
public class asfj{
	public static void Main(){
		const int n=10;
		int [] arr=new int[n]{9,0,10,9,1,100,9,8,7,5};
		for(int i=0;i<n;i++)
			Console.WriteLine("{0}: {1}",i,arr[i]);
		int l=0;
		int locall=0;
		for(int i=0;i<n-1;i++){
			if(arr[i]>arr[i+1])
				locall++;
			else{
				if(l<locall)
					l=locall;
				locall=0;
			}

		}
		if(l<locall)
			l=locall;
		Console.WriteLine(l+1);
	}
}
//7works
using System;
public class Name{
	public static void Main(){
		const int n =10;
		int[] arr=new int[n]/*{2,-4,-1,0,-2,-6,-7,8,9,-10}*/{-1,-2,-3,-4,-5,-6,-7,8,9,10}/*{0,0,0,-2,-3,0,0,0,0,0}*/;
		for(int i=0;i<n;i++)
			Console.WriteLine("{0}: {1}",i,arr[i]);
		int l=0;
		for(int i =n-1;i>=0;i--){
			if(arr[i]<0){
				int t = arr[i];
				arr[i]=arr[n-1-l];
				arr[n-1-l]=t;
				l++;}
			/*for(int k =0;k<n;k++)
				Console.Write("{0} ",arr[k]);
			Console.WriteLine()*/;
		}
		for(int i =0;i<n;i++)
			Console.WriteLine(arr[i]);

	}
}
//8works
using System;
public class Name{
	public static void Main(){
		const int n=10;
		int[] arr=new int[n]{5,-2,4,3,-1,6,-9,-4,-2,1}/*{0,0,0,0,-2,-3,-4,-5,-6,-7}*//*{9,2,5,-1,2,-3,-5,-4,2,4}*/;
		for(int i=0;i<n;i++)
			Console.WriteLine("{0}: {1}",i,arr[i]);
		for(int i =0;i<n-1;i++){
			if(arr[i]<0){
				int max=arr[i];
				int imax=i;
				for(int l=i+1;l<n;l++){
					if((arr[l]>max)&&(arr[l]<0)){
						max=arr[l];
						imax=l;
					}
				}
				arr[imax]=arr[i];
				arr[i]=max;
			}
				/*for(int k=0;k<n;k++)
					Console.Write("{0} ",arr[k]);
				Console.WriteLine();*/
		}
		for(int i=0;i<n;i++)
			Console.Write("{0} ",arr[i]);
	}
}
//9works
using System;
public class Massiv{
	public static void Main(){
		const int n=10;
		int[] arr=new int[n]{1,2,3,2,1,0,-1,2,5,7};
		for(int i=0;i<n;i++)
			Console.WriteLine("{0}: {1}",i,arr[i]);
		int lu=0;
		int ld=0;
		int locallu=0;
		int localld=0;
		for(int i =0;i<n-1;i++){
			if(arr[i]<arr[i+1]){
				locallu++;
				if (ld<localld)
					ld=localld;
				localld=0;
			}
			else if(arr[i]>arr[i+1]){
				localld++;
				if (lu<locallu)
					lu=locallu;
				locallu=0;
			}
			else{
				if (ld<localld)
					ld=localld;
				if (lu<locallu)
					lu=locallu;
				localld=0;
				locallu=0;
			}

		}
		lu++;
		ld++;
		int lmax;
		if (lu<ld)
			lmax=ld;
		else
			lmax=lu;
		Console.WriteLine("Up: {0}\nDown:{1}\nMax:{2}",lu,ld,lmax);
	}
}
//10works
using System;
public class Sda{
	public static void Main(){
		const int n = 10;
		int[] arr = new int[n]{3,-8,9,-10,2,0,0,0,0,0};
		for(int i=0;i<n;i++)
			Console.WriteLine("{0}: {1}",i,arr[i]);
		for(int i = n-1; i >=0 ;i-=2){
			arr[i]=arr[i/2];
			arr[i-1]=arr[i/2];
		}
		for(int i =0;i<n;i++)
			Console.Write("{0} ",arr[i]);
	}
}
//11idk
using System;
public class Sda{
	public static double f(double x){
		return Math.Cos(x)+x*Math.Sin(x);
	}
	public static void Main(){
		double a,b;
		int n;
		a=-100;
		b=100;
		n=100;
		double x = a;
		int i =0;
		double[] arrX=new double[n];
		double[] arrY=new double[n];
		while(x<=b){
			arrX[i]=x;
			arrY[i]=f(x);
			i++;
			x+=(b-a)/(n-1);
		}
		double max=arrY[0];
		double min=arrY[0];
		for(i=1;i<n-1;i++){
			if((arrY[i-1]<arrY[i])&&(arrY[i+1]<arrY[i])){
				Console.WriteLine("Local Minimun X: {0} f(x): {1}",arrX[i],arrY[i]);
				if (max<arrY[i])
					max=arrY[i];
				}
			if((arrY[i-1]>arrY[i])&&(arrY[i+1]>arrY[i])){
				if (min<arrY[i])
					min=arrY[i];
				Console.WriteLine("Local Maximum X: {0} f(x): {1}",arrX[i],arrY[i]);
			}
		}
		Console.WriteLine("Global minimun f(x): {0}\nGlobal maximum f(x): {1}",min,max);

	}
}
